{
  "timestamp": 1676634233000,
  "version": 20002,
  "index": {
    "name": "/index-v2.json",
    "sha256": "ba000a3f5e1935d338f374c50cae529b8ce6d988ab3ed67c7a8cf437502f81ad",
    "size": 52481,
    "numPackages": 10
  },
  "diffs": {}
}
